[gd_scene load_steps=7 format=2]

[ext_resource path="res://scenes/Credits2.gd" type="Script" id=1]
[ext_resource path="res://sprites/title_graphic.png" type="Texture" id=2]
[ext_resource path="res://sprites/title_text.png" type="Texture" id=3]
[ext_resource path="res://fonts/unnamed-3x5.tres" type="DynamicFont" id=4]
[ext_resource path="res://harmonic-godot/text-effects/PulsingText.gd" type="Script" id=5]
[ext_resource path="res://fonts/m6x11.tres" type="DynamicFont" id=6]

[node name="Jukebox" type="CanvasLayer"]
script = ExtResource( 1 )

[node name="ColorRect" type="ColorRect" parent="."]
anchor_right = 1.0
anchor_bottom = 1.0
color = Color( 0, 0, 0, 1 )

[node name="Particles" type="CPUParticles2D" parent="."]
pause_mode = 2
position = Vector2( 0, 60 )
amount = 50
lifetime = 5.0
emission_shape = 2
emission_rect_extents = Vector2( 1, 60 )
spread = 0.0
gravity = Vector2( 0, 0 )
initial_velocity = 150.0
initial_velocity_random = 0.5

[node name="BackgroundGraphic" type="TextureRect" parent="."]
visible = false
margin_left = 20.0
margin_right = 220.0
margin_bottom = 120.0
texture = ExtResource( 2 )

[node name="TitleGraphic" type="TextureRect" parent="."]
visible = false
margin_right = 40.0
margin_bottom = 40.0
texture = ExtResource( 3 )

[node name="InitialText1" type="Label" parent="."]
visible = false
anchor_right = 1.0
anchor_bottom = 1.0
custom_fonts/font = ExtResource( 4 )
custom_colors/font_color = Color( 0.294118, 0.294118, 0.294118, 1 )
text = "







Press Space to Unlock Menu"
align = 1
valign = 1

[node name="InitialText2" type="Label" parent="."]
visible = false
anchor_right = 1.0
anchor_bottom = 1.0
custom_fonts/font = ExtResource( 4 )
text = "







Press Space to Unlock Menu"
align = 1
valign = 1
script = ExtResource( 5 )

[node name="Menu" type="VBoxContainer" parent="."]
anchor_top = 1.0
anchor_bottom = 1.0
margin_left = 10.0
margin_top = -90.0
margin_right = 125.0
alignment = 1

[node name="Tween" type="Tween" parent="."]

[node name="Label" type="Label" parent="."]
anchor_right = 1.0
margin_bottom = 30.0
custom_fonts/font = ExtResource( 6 )
text = "Credits (cont.)"
align = 1
valign = 1

[node name="NowPlaying" type="Label" parent="."]
anchor_right = 1.0
margin_left = 10.0
margin_top = 27.0
margin_right = -10.0
margin_bottom = 114.0
custom_fonts/font = ExtResource( 4 )
text = "Special thanks to Capcom and the Mega Man series for providing amazing inspiration for game design, artwork, music, and more.

And thank you, for playing my game."
valign = 1
autowrap = true
