[gd_scene load_steps=6 format=2]

[ext_resource path="res://scripts/MenuScene.gd" type="Script" id=1]
[ext_resource path="res://sprites/title_graphic.png" type="Texture" id=2]
[ext_resource path="res://sprites/title_text.png" type="Texture" id=3]
[ext_resource path="res://fonts/unnamed-3x5.tres" type="DynamicFont" id=4]
[ext_resource path="res://harmonic-godot/text-effects/PulsingText.gd" type="Script" id=5]

[node name="MenuScene" type="CanvasLayer"]
script = ExtResource( 1 )

[node name="ColorRect" type="ColorRect" parent="."]
anchor_right = 1.0
anchor_bottom = 1.0
color = Color( 0, 0, 0, 1 )

[node name="Particles" type="CPUParticles2D" parent="."]
pause_mode = 2
position = Vector2( 0, 60 )
amount = 50
lifetime = 5.0
emission_shape = 2
emission_rect_extents = Vector2( 1, 60 )
spread = 0.0
gravity = Vector2( 0, 0 )
initial_velocity = 150.0
initial_velocity_random = 0.5

[node name="BackgroundGraphic" type="TextureRect" parent="."]
margin_left = 20.0
margin_right = 220.0
margin_bottom = 120.0
texture = ExtResource( 2 )
__meta__ = {
"_edit_use_anchors_": false
}

[node name="TitleGraphic" type="TextureRect" parent="."]
margin_right = 40.0
margin_bottom = 40.0
texture = ExtResource( 3 )

[node name="InitialText1" type="Label" parent="."]
anchor_right = 1.0
anchor_bottom = 1.0
custom_fonts/font = ExtResource( 4 )
custom_colors/font_color = Color( 0.294118, 0.294118, 0.294118, 1 )
text = "







Press Space to Unlock Menu"
align = 1
valign = 1

[node name="InitialText2" type="Label" parent="."]
anchor_right = 1.0
anchor_bottom = 1.0
custom_fonts/font = ExtResource( 4 )
text = "







Press Space to Unlock Menu"
align = 1
valign = 1
script = ExtResource( 5 )

[node name="Menu" type="VBoxContainer" parent="."]
anchor_top = 1.0
anchor_bottom = 1.0
margin_left = 10.0
margin_top = -80.0
margin_right = 125.0
alignment = 1
__meta__ = {
"_edit_use_anchors_": false
}

[node name="Tween" type="Tween" parent="."]

[node name="Label" type="Label" parent="."]
anchor_left = 1.0
anchor_top = 1.0
anchor_right = 1.0
anchor_bottom = 1.0
margin_left = -40.0
margin_top = -14.0
custom_fonts/font = ExtResource( 4 )
custom_colors/font_color = Color( 0.364706, 0.364706, 0.364706, 1 )
text = "v2.00"
align = 2
valign = 2
__meta__ = {
"_edit_use_anchors_": false
}
