[gd_resource type="ShaderMaterial" load_steps=2 format=2]

[ext_resource path="res://harmonic-godot/shaders/palette-shader.shader" type="Shader" id=1]

[resource]
shader = ExtResource( 1 )
shader_param/threshold1 = 0.25
shader_param/threshold2 = 0.5
shader_param/threshold3 = 0.75
shader_param/color1 = Color( 0.0313726, 0.0941176, 0.12549, 1 )
shader_param/color2 = Color( 0.203922, 0.407843, 0.337255, 1 )
shader_param/color3 = Color( 0.533333, 0.752941, 0.439216, 1 )
shader_param/color4 = Color( 0.878431, 0.972549, 0.815686, 1 )
