[gd_scene load_steps=4 format=2]

[ext_resource path="res://projectiles/EnemyProjectile.gd" type="Script" id=1]
[ext_resource path="res://enemies/sawsmall.png" type="Texture" id=2]

[sub_resource type="CircleShape2D" id=1]
radius = 4.0

[node name="SawSmall" type="Area2D"]
collision_layer = 4
script = ExtResource( 1 )
damage = 3
rotationRate = 15.0

[node name="Sprite" type="Sprite" parent="."]
texture = ExtResource( 2 )

[node name="CollisionShape2D" type="CollisionShape2D" parent="."]
shape = SubResource( 1 )
