[gd_scene load_steps=6 format=2]

[ext_resource path="res://levels/tileset1.tres" type="TileSet" id=1]
[ext_resource path="res://levels/animated-tileset.tres" type="TileSet" id=2]
[ext_resource path="res://levels/spawn-point.tscn" type="PackedScene" id=3]
[ext_resource path="res://obstacles/spike.tscn" type="PackedScene" id=4]

[sub_resource type="RectangleShape2D" id=1]
extents = Vector2( 100, 60 )

[node name="1-8" type="Area2D"]
collision_layer = 0
collision_mask = 5

[node name="CollisionShape2D" type="CollisionShape2D" parent="."]
visible = false
position = Vector2( 100, 60 )
shape = SubResource( 1 )

[node name="Base" type="TileMap" parent="."]
tile_set = ExtResource( 1 )
cell_size = Vector2( 10, 10 )
format = 1
tile_data = PoolIntArray( 65535, 0, 8, 0, 0, 131081, 1, 0, 131081, 2, 0, 131081, 3, 0, 131081, 4, 0, 131081, 5, 0, 131079, 9, 0, 65544, 10, 0, 131081, 11, 0, 131081, 12, 0, 131081, 13, 0, 131081, 14, 0, 131081, 15, 0, 131081, 16, 0, 131081, 17, 0, 131081, 18, 0, 131081, 19, 0, 131081, 20, 0, 11, 131071, 0, 65544, 65536, 0, 131081, 65537, 0, 131081, 65538, 0, 131081, 65539, 0, 131078, 65540, 0, 196617, 65541, 0, 196619, 65545, 0, 196616, 65546, 0, 196617, 65547, 0, 196617, 65548, 0, 131077, 65549, 0, 131081, 65550, 0, 131081, 65551, 0, 131081, 65552, 0, 131081, 65553, 0, 131081, 65554, 0, 131081, 65555, 0, 131081, 65556, 0, 131083, 196607, 0, 65544, 131072, 0, 131081, 131073, 0, 131081, 131074, 0, 131081, 131075, 0, 131083, 131084, 0, 196616, 131085, 0, 131077, 131086, 0, 131081, 131087, 0, 131081, 131088, 0, 131081, 131089, 0, 131081, 131090, 0, 131081, 131091, 0, 131081, 131092, 0, 131083, 262143, 0, 65544, 196608, 0, 131081, 196609, 0, 131081, 196610, 0, 131078, 196611, 0, 196619, 196621, 0, 196616, 196622, 0, 131077, 196623, 0, 131081, 196624, 0, 131081, 196625, 0, 131081, 196626, 0, 131081, 196627, 0, 131081, 196628, 0, 131083, 327679, 0, 65544, 262144, 0, 131081, 262145, 0, 131081, 262146, 0, 131083, 262150, 0, 196609, 262151, 0, 196610, 262152, 0, 196611, 262158, 0, 65544, 262159, 0, 131081, 262160, 0, 131081, 262161, 0, 131081, 262162, 0, 131081, 262163, 0, 131081, 262164, 0, 131083, 393215, 0, 65544, 327680, 0, 131081, 327681, 0, 131081, 327682, 0, 131083, 327694, 0, 65544, 327695, 0, 131081, 327696, 0, 131081, 327697, 0, 131081, 327698, 0, 131081, 327699, 0, 131081, 327700, 0, 131083, 458751, 0, 65544, 393216, 0, 131081, 393217, 0, 131081, 393218, 0, 65542, 393219, 0, 11, 393230, 0, 65544, 393231, 0, 131081, 393232, 0, 131081, 393233, 0, 131081, 393234, 0, 131081, 393235, 0, 131081, 393236, 0, 131083, 524287, 0, 65544, 458752, 0, 131081, 458753, 0, 131081, 458754, 0, 131081, 458755, 0, 65542, 458756, 0, 11, 458761, 0, 8, 458762, 0, 11, 458766, 0, 65544, 458767, 0, 131081, 458768, 0, 131081, 458769, 0, 131081, 458770, 0, 131081, 458771, 0, 131081, 458772, 0, 131083, 589823, 0, 65544, 524288, 0, 131081, 524289, 0, 131081, 524290, 0, 131081, 524291, 0, 131078, 524292, 0, 196614, 524293, 0, 196611, 524296, 0, 196609, 524297, 0, 196613, 524298, 0, 196619, 524302, 0, 65544, 524303, 0, 131081, 524304, 0, 131081, 524305, 0, 131081, 524306, 0, 131081, 524307, 0, 131081, 524308, 0, 131083, 655359, 0, 65544, 589824, 0, 131081, 589825, 0, 131081, 589826, 0, 131081, 589827, 0, 131083, 589837, 0, 8, 589838, 0, 65541, 589839, 0, 131081, 589840, 0, 131081, 589841, 0, 131081, 589842, 0, 131081, 589843, 0, 131081, 589844, 0, 131083, 720895, 0, 65544, 655360, 0, 131081, 655361, 0, 131081, 655362, 0, 131081, 655363, 0, 131083, 655373, 0, 65544, 655374, 0, 131081, 655375, 0, 131081, 655376, 0, 131081, 655377, 0, 131081, 655378, 0, 131081, 655379, 0, 131081, 655380, 0, 131083, 786431, 0, 196616, 720896, 0, 131081, 720897, 0, 131081, 720898, 0, 131081, 720899, 0, 131079, 720902, 0, 8, 720903, 0, 11, 720909, 0, 65544, 720910, 0, 131081, 720911, 0, 131081, 720912, 0, 131081, 720913, 0, 131081, 720914, 0, 131081, 720915, 0, 131081, 720916, 0, 196619 )

[node name="Animated" type="TileMap" parent="."]
tile_set = ExtResource( 2 )
cell_size = Vector2( 10, 10 )
format = 1
tile_data = PoolIntArray( 589827, 0, 0, 589828, 0, 0, 655361, 0, 0, 655362, 0, 0, 655363, 0, 0, 655364, 0, 0, 655369, 0, 0, 655370, 0, 0, 655371, 0, 0, 655372, 0, 0, 720896, 0, 0, 720897, 0, 0, 720898, 0, 0, 720899, 0, 0, 720900, 0, 0, 720901, 0, 0, 720902, 0, 0, 720903, 0, 0, 720904, 0, 0, 720905, 0, 0, 720906, 0, 0, 720907, 0, 0, 720908, 0, 0 )

[node name="SpawnPoint" parent="." instance=ExtResource( 3 )]
position = Vector2( 74, 33 )

[node name="Spike" parent="." instance=ExtResource( 4 )]
position = Vector2( 55, 45 )

[node name="Spike6" parent="." instance=ExtResource( 4 )]
position = Vector2( 135, 65 )

[node name="Spike2" parent="." instance=ExtResource( 4 )]
position = Vector2( 45, 45 )

[node name="Spike7" parent="." instance=ExtResource( 4 )]
position = Vector2( 55, 115 )

[node name="Spike4" parent="." instance=ExtResource( 4 )]
position = Vector2( 125, 65 )

[node name="Spike3" parent="." instance=ExtResource( 4 )]
position = Vector2( 35, 45 )

[node name="Spike8" parent="." instance=ExtResource( 4 )]
position = Vector2( 45, 115 )

[node name="Spike5" parent="." instance=ExtResource( 4 )]
position = Vector2( 115, 65 )
