[gd_scene load_steps=15 format=2]

[ext_resource path="res://levels/tileset2.tres" type="TileSet" id=1]
[ext_resource path="res://levels/animated-tileset.tres" type="TileSet" id=2]
[ext_resource path="res://levels/spawn-point.tscn" type="PackedScene" id=3]
[ext_resource path="res://unlocks/unlock-pickup.tscn" type="PackedScene" id=4]
[ext_resource path="res://unlocks/key.png" type="Texture" id=5]
[ext_resource path="res://enemies/cannon.tscn" type="PackedScene" id=6]
[ext_resource path="res://enemies/path-enemy.tscn" type="PackedScene" id=7]
[ext_resource path="res://obstacles/door.tscn" type="PackedScene" id=8]
[ext_resource path="res://levels/level2/Level2End.gd" type="Script" id=9]
[ext_resource path="res://levels/level2/Level2RealEnd.gd" type="Script" id=10]

[sub_resource type="Curve2D" id=1]
_data = {
"points": PoolVector2Array( 0, 0, 0, 0, 0, 0, 0, 0, 0, 0, 30, 0, 0, 0, 0, 0, 0, 0 )
}

[sub_resource type="Curve2D" id=2]
_data = {
"points": PoolVector2Array( 0, 0, 0, 0, 0, 0, 0, 0, 0, 0, 0, -30, 0, 0, 0, 0, 0, 0 )
}

[sub_resource type="RectangleShape2D" id=3]
extents = Vector2( 100, 180 )

[sub_resource type="RectangleShape2D" id=4]
extents = Vector2( 5, 15 )

[node name="2-6" type="Area2D"]
collision_layer = 0
collision_mask = 5

[node name="Base" type="TileMap" parent="."]
tile_set = ExtResource( 1 )
cell_size = Vector2( 10, 10 )
format = 1
tile_data = PoolIntArray( -2, 0, 8, -1, 0, 10, -65536, 0, 10, -65535, 0, 10, -65534, 0, 10, -65533, 0, 10, -65532, 0, 10, -65531, 0, 10, -65530, 0, 10, -65529, 0, 10, -65528, 0, 10, -65527, 0, 10, -65526, 0, 10, -65525, 0, 10, -65524, 0, 10, -65523, 0, 10, -65522, 0, 10, -65521, 0, 10, -65520, 0, 10, -65519, 0, 10, -65518, 0, 10, -65517, 0, 10, -65516, 0, 11, 65534, 0, 65544, 65535, 0, 131081, 0, 0, 131081, 1, 0, 131078, 2, 0, 196617, 3, 0, 196617, 4, 0, 196617, 5, 0, 196617, 6, 0, 196617, 7, 0, 196617, 8, 0, 196617, 9, 0, 196617, 10, 0, 196617, 11, 0, 196617, 12, 0, 196617, 13, 0, 196617, 14, 0, 196617, 15, 0, 196617, 16, 0, 196617, 17, 0, 196617, 18, 0, 131077, 19, 0, 131081, 20, 0, 131083, 131070, 0, 65544, 131071, 0, 131081, 65536, 0, 131081, 65537, 0, 131083, 65554, 0, 65544, 65555, 0, 131081, 65556, 0, 131083, 196606, 0, 65544, 196607, 0, 131081, 131072, 0, 131081, 131073, 0, 131083, 131090, 0, 65544, 131091, 0, 131081, 131092, 0, 131083, 262142, 0, 65544, 262143, 0, 131081, 196608, 0, 131081, 196609, 0, 131083, 196616, 0, 196609, 196617, 0, 196610, 196618, 0, 196610, 196619, 0, 196610, 196620, 0, 196610, 196621, 0, 196610, 196622, 0, 196610, 196623, 0, 3, 196626, 0, 65544, 196627, 0, 131081, 196628, 0, 131083, 327678, 0, 65544, 327679, 0, 131081, 262144, 0, 131081, 262145, 0, 131083, 262159, 0, 65536, 262162, 0, 65544, 262163, 0, 131081, 262164, 0, 131083, 393214, 0, 65544, 393215, 0, 131081, 327680, 0, 131081, 327681, 0, 131083, 327685, 0, 196609, 327686, 0, 196611, 327695, 0, 65536, 327698, 0, 65544, 327699, 0, 131081, 327700, 0, 131083, 458750, 0, 65544, 458751, 0, 131081, 393216, 0, 131081, 393217, 0, 65547, 393218, 0, 196611, 393225, 0, 1, 393226, 0, 196610, 393227, 0, 196611, 393231, 0, 65536, 393234, 0, 65544, 393235, 0, 131081, 393236, 0, 131083, 524286, 0, 65544, 524287, 0, 131081, 458752, 0, 131081, 458753, 0, 131083, 458761, 0, 65536, 458767, 0, 65536, 458770, 0, 65544, 458771, 0, 131081, 458772, 0, 131083, 589822, 0, 65544, 589823, 0, 131081, 524288, 0, 131081, 524289, 0, 131083, 524292, 0, 196609, 524293, 0, 196611, 524297, 0, 65536, 524302, 0, 8, 524303, 0, 65543, 524306, 0, 65544, 524307, 0, 131081, 524308, 0, 131083, 655358, 0, 65544, 655359, 0, 131081, 589824, 0, 131081, 589825, 0, 131083, 589833, 0, 65536, 589837, 0, 196609, 589838, 0, 196613, 589839, 0, 131079, 589842, 0, 65544, 589843, 0, 131081, 589844, 0, 131083, 720894, 0, 65544, 720895, 0, 131081, 655360, 0, 131081, 655361, 0, 131083, 655368, 0, 8, 655369, 0, 65543, 655375, 0, 65536, 655378, 0, 65544, 655379, 0, 131081, 655380, 0, 131083, 786430, 0, 65544, 786431, 0, 131081, 720896, 0, 131081, 720897, 0, 131083, 720903, 0, 8, 720904, 0, 65541, 720905, 0, 65542, 720906, 0, 11, 720911, 0, 65536, 720914, 0, 65544, 720915, 0, 131081, 720916, 0, 131083, 851966, 0, 65544, 851967, 0, 131081, 786432, 0, 131081, 786433, 0, 65547, 786434, 0, 196610, 786435, 0, 196610, 786436, 0, 196610, 786437, 0, 196610, 786438, 0, 196610, 786439, 0, 196613, 786440, 0, 196617, 786441, 0, 196617, 786442, 0, 196614, 786443, 0, 196611, 786447, 0, 65536, 786450, 0, 65544, 786451, 0, 131081, 786452, 0, 131083, 917502, 0, 65544, 917503, 0, 131081, 851968, 0, 131081, 851969, 0, 131083, 851983, 0, 65536, 851986, 0, 65544, 851987, 0, 131081, 851988, 0, 131083, 983038, 0, 65544, 983039, 0, 131081, 917504, 0, 131081, 917505, 0, 131083, 917518, 0, 196609, 917519, 0, 65539, 917522, 0, 65544, 917523, 0, 131081, 917524, 0, 131083, 1048574, 0, 65544, 1048575, 0, 131081, 983040, 0, 131081, 983041, 0, 131083, 983055, 0, 65536, 983058, 0, 65544, 983059, 0, 131081, 983060, 0, 131083, 1114110, 0, 65544, 1114111, 0, 131081, 1048576, 0, 131081, 1048577, 0, 65547, 1048578, 0, 196610, 1048579, 0, 196610, 1048580, 0, 196610, 1048581, 0, 196610, 1048582, 0, 196611, 1048587, 0, 196609, 1048588, 0, 196610, 1048589, 0, 196611, 1048591, 0, 65536, 1048594, 0, 65544, 1048595, 0, 131081, 1048596, 0, 131083, 1179646, 0, 65544, 1179647, 0, 131081, 1114112, 0, 131081, 1114113, 0, 131083, 1114127, 0, 65536, 1114130, 0, 65544, 1114131, 0, 131081, 1114132, 0, 131083, 1245182, 0, 65544, 1245183, 0, 131081, 1179648, 0, 131081, 1179649, 0, 131083, 1179656, 0, 196608, 1179663, 0, 65536, 1179666, 0, 65544, 1179667, 0, 131081, 1179668, 0, 131083, 1310718, 0, 65544, 1310719, 0, 131081, 1245184, 0, 131081, 1245185, 0, 131083, 1245199, 0, 65536, 1245202, 0, 65544, 1245203, 0, 131081, 1245204, 0, 131083, 1376254, 0, 65544, 1376255, 0, 131081, 1310720, 0, 131081, 1310721, 0, 65542, 1310722, 0, 10, 1310723, 0, 10, 1310724, 0, 10, 1310725, 0, 10, 1310726, 0, 11, 1310729, 0, 196608, 1310735, 0, 65536, 1310738, 0, 65544, 1310739, 0, 131081, 1310740, 0, 131083, 1441790, 0, 65544, 1441791, 0, 131081, 1376256, 0, 131078, 1376257, 0, 196617, 1376258, 0, 196617, 1376259, 0, 196617, 1376260, 0, 196617, 1376261, 0, 196617, 1376262, 0, 196619, 1376267, 0, 196608, 1376271, 0, 65536, 1376274, 0, 65544, 1376275, 0, 131081, 1376276, 0, 131083, 1507326, 0, 65544, 1507327, 0, 131081, 1441792, 0, 131083, 1441807, 0, 65536, 1441810, 0, 65544, 1441811, 0, 131081, 1441812, 0, 131083, 1572862, 0, 65544, 1572863, 0, 131081, 1507328, 0, 131083, 1507342, 0, 8, 1507343, 0, 65543, 1507346, 0, 65544, 1507347, 0, 131081, 1507348, 0, 131083, 1572864, 0, 131083, 1572874, 0, 196609, 1572875, 0, 196610, 1572876, 0, 196610, 1572877, 0, 196610, 1572878, 0, 196613, 1572879, 0, 196619, 1572882, 0, 65544, 1572883, 0, 131081, 1572884, 0, 131083, 1638400, 0, 131083, 1638418, 0, 65544, 1638419, 0, 131081, 1638420, 0, 131083, 1703936, 0, 131083, 1703943, 0, 196608, 1703954, 0, 65544, 1703955, 0, 131081, 1703956, 0, 131083, 1769472, 0, 131083, 1769488, 0, 196609, 1769489, 0, 196610, 1769490, 0, 131080, 1769491, 0, 131081, 1769492, 0, 131083, 1835008, 0, 131083, 1835016, 0, 196608, 1835026, 0, 65544, 1835027, 0, 131081, 1835028, 0, 131083, 1900544, 0, 131083, 1900562, 0, 196616, 1900563, 0, 196617, 1900564, 0, 131079, 1966080, 0, 196619, 1966090, 0, 196609, 1966091, 0, 196611, 1966100, 0, 65536, 2031636, 0, 0, 2097166, 0, 8, 2097167, 0, 11, 2097172, 0, 65536, 2162688, 0, 10, 2162689, 0, 10, 2162690, 0, 10, 2162691, 0, 10, 2162692, 0, 10, 2162693, 0, 10, 2162694, 0, 10, 2162695, 0, 10, 2162696, 0, 10, 2162697, 0, 10, 2162698, 0, 10, 2162699, 0, 10, 2162700, 0, 10, 2162701, 0, 10, 2162702, 0, 65541, 2162703, 0, 65542, 2162704, 0, 10, 2162705, 0, 10, 2162706, 0, 10, 2162707, 0, 10, 2162708, 0, 65543, 2228224, 0, 131081, 2228225, 0, 131081, 2228226, 0, 131081, 2228227, 0, 131081, 2228228, 0, 131081, 2228229, 0, 131081, 2228230, 0, 131081, 2228231, 0, 131081, 2228232, 0, 131081, 2228233, 0, 131081, 2228234, 0, 131081, 2228235, 0, 131081, 2228236, 0, 131081, 2228237, 0, 131081, 2228238, 0, 131081, 2228239, 0, 131081, 2228240, 0, 131081, 2228241, 0, 131081, 2228242, 0, 131081, 2228243, 0, 131081, 2228244, 0, 131083, 2293760, 0, 131081, 2293761, 0, 131081, 2293762, 0, 131081, 2293763, 0, 131081, 2293764, 0, 131081, 2293765, 0, 131081, 2293766, 0, 131081, 2293767, 0, 131081, 2293768, 0, 131081, 2293769, 0, 131081, 2293770, 0, 131081, 2293771, 0, 131081, 2293772, 0, 131081, 2293773, 0, 131081, 2293774, 0, 131081, 2293775, 0, 131081, 2293776, 0, 131081, 2293777, 0, 131081, 2293778, 0, 131081, 2293779, 0, 131081, 2293780, 0, 131083, 2359296, 0, 196617, 2359297, 0, 196617, 2359298, 0, 196617, 2359299, 0, 196617, 2359300, 0, 196617, 2359301, 0, 196617, 2359302, 0, 196617, 2359303, 0, 196617, 2359304, 0, 196617, 2359305, 0, 196617, 2359306, 0, 196617, 2359307, 0, 196617, 2359308, 0, 196617, 2359309, 0, 196617, 2359310, 0, 196617, 2359311, 0, 196617, 2359312, 0, 196617, 2359313, 0, 196617, 2359314, 0, 196617, 2359315, 0, 196617, 2359316, 0, 196619 )

[node name="Animated" type="TileMap" parent="."]
tile_set = ExtResource( 2 )
cell_size = Vector2( 10, 10 )
format = 1
tile_data = PoolIntArray( 589827, 0, 0, 589828, 0, 0, 655361, 0, 0, 655362, 0, 0, 655363, 0, 0, 655364, 0, 0, 655369, 0, 0, 655370, 0, 0, 655371, 0, 0, 655372, 0, 0, 720896, 0, 0, 720897, 0, 0, 720898, 0, 0, 720899, 0, 0, 720900, 0, 0, 720901, 0, 0, 720902, 0, 0, 720903, 0, 0, 720904, 0, 0, 720905, 0, 0, 720906, 0, 0, 720907, 0, 0, 720908, 0, 0 )

[node name="SpawnPoint" parent="." instance=ExtResource( 3 )]
position = Vector2( 24, 323 )

[node name="UnlockPickup" parent="." instance=ExtResource( 4 )]
position = Vector2( 115, 25 )
texture = ExtResource( 5 )
feature = "level2_key"

[node name="Cannon" parent="." instance=ExtResource( 6 )]
position = Vector2( 44, 192 )

[node name="Cannon2" parent="." instance=ExtResource( 6 )]
position = Vector2( 44, 152 )

[node name="Cannon3" parent="." instance=ExtResource( 6 )]
position = Vector2( 50, 72 )

[node name="PathEnemy" parent="." instance=ExtResource( 7 )]
position = Vector2( 105, 235 )
curve = SubResource( 1 )

[node name="PathEnemy2" parent="." instance=ExtResource( 7 )]
position = Vector2( 145, 75 )
curve = SubResource( 2 )

[node name="Door" parent="." instance=ExtResource( 8 )]
position = Vector2( 183, 300 )

[node name="CollisionShape2D" type="CollisionShape2D" parent="."]
visible = false
position = Vector2( 100, 180 )
shape = SubResource( 3 )

[node name="Area2D" type="Area2D" parent="."]
script = ExtResource( 9 )

[node name="CollisionShape2D" type="CollisionShape2D" parent="Area2D"]
position = Vector2( 185, 315 )
shape = SubResource( 4 )

[node name="Area2D2" type="Area2D" parent="."]
position = Vector2( 15, 0 )
script = ExtResource( 10 )

[node name="CollisionShape2D" type="CollisionShape2D" parent="Area2D2"]
position = Vector2( 185, 315 )
shape = SubResource( 4 )
